"","Res","AA","Score"
"1",1,"I",0.812
"2",2,"T",0.192
"3",3,"L",0.784
"4",4,"I",0.798
"5",5,"I",0.814
"6",6,"F",0.794
"7",7,"G",0.79
"8",8,"V",0.818
"9",9,"M",0.842
"10",10,"A",0.836
"11",11,"G",0.884
"12",12,"V",0.742
"13",13,"I",0.236
"14",14,"G",0.854
"15",15,"T",0.802
"16",16,"I",0.86
"17",17,"L",0.118
"18",18,"L",0.088
"19",19,"I",0.828
"20",20,"S",0.21
"21",21,"Y",0.122
"22",22,"G",0.124
"23",23,"I",0.278
